<!-- Generated by IcoMoon.io -->
<svg version="1.1" xmlns="http://www.w3.org/2000/svg" width="43" height="32" viewBox="0 0 43 32">
<title>circle-pool</title>
<path d="M21.333 32c-8.822 0-16-7.178-16-16s7.178-16 16-16c8.822 0 16 7.178 16 16s-7.178 16-16 16zM21.333 0.291c-8.662 0-15.709 7.047-15.709 15.709s7.047 15.709 15.709 15.709c8.662 0 15.709-7.047 15.709-15.709s-7.047-15.709-15.709-15.709z"></path>
<path d="M24.904 19.876c-0.275 0-0.415-0.141-0.529-0.255-0.106-0.106-0.167-0.161-0.302-0.161s-0.196 0.055-0.302 0.161c-0.114 0.114-0.255 0.255-0.529 0.255s-0.415-0.141-0.529-0.255c-0.106-0.106-0.167-0.161-0.302-0.161s-0.196 0.055-0.302 0.161c-0.113 0.114-0.254 0.255-0.529 0.255s-0.415-0.141-0.529-0.255c-0.106-0.106-0.167-0.161-0.302-0.161s-0.196 0.055-0.302 0.161c-0.113 0.114-0.254 0.255-0.529 0.255s-0.415-0.141-0.528-0.254c-0.107-0.106-0.168-0.162-0.303-0.162s-0.196 0.055-0.302 0.161c-0.113 0.114-0.254 0.255-0.529 0.255s-0.415-0.141-0.528-0.255c-0.106-0.106-0.167-0.161-0.302-0.161s-0.196 0.055-0.302 0.161c-0.113 0.114-0.254 0.255-0.529 0.255-0.088 0-0.16-0.072-0.16-0.16s0.072-0.16 0.16-0.16c0.135 0 0.196-0.055 0.302-0.161 0.114-0.114 0.255-0.255 0.529-0.255s0.415 0.141 0.529 0.255c0.106 0.106 0.167 0.161 0.302 0.161s0.196-0.055 0.302-0.161c0.113-0.114 0.254-0.255 0.529-0.255s0.415 0.141 0.529 0.254c0.106 0.106 0.167 0.161 0.302 0.161s0.196-0.055 0.302-0.161c0.113-0.114 0.254-0.255 0.529-0.255s0.415 0.141 0.528 0.254c0.106 0.106 0.167 0.161 0.302 0.161s0.196-0.055 0.302-0.161c0.114-0.114 0.255-0.255 0.529-0.255s0.415 0.141 0.529 0.255c0.106 0.106 0.167 0.161 0.302 0.161s0.196-0.055 0.302-0.161c0.113-0.114 0.254-0.255 0.529-0.255s0.415 0.141 0.528 0.254c0.106 0.106 0.168 0.161 0.303 0.161 0.088 0 0.16 0.072 0.16 0.16s-0.072 0.16-0.16 0.16z"></path>
<path d="M24.904 18.98c-0.274 0-0.415-0.141-0.528-0.254-0.106-0.106-0.168-0.161-0.303-0.161s-0.197 0.055-0.302 0.161c-0.114 0.114-0.255 0.254-0.529 0.254s-0.415-0.141-0.528-0.254c-0.106-0.106-0.167-0.161-0.302-0.161s-0.196 0.055-0.302 0.161c-0.113 0.114-0.255 0.254-0.529 0.254s-0.415-0.141-0.528-0.254c-0.106-0.106-0.167-0.162-0.302-0.162s-0.197 0.055-0.302 0.161c-0.114 0.114-0.255 0.254-0.529 0.254s-0.415-0.141-0.528-0.254c-0.106-0.106-0.167-0.162-0.303-0.162s-0.197 0.055-0.302 0.161c-0.114 0.114-0.255 0.254-0.529 0.254s-0.415-0.141-0.528-0.254c-0.106-0.106-0.167-0.162-0.303-0.162s-0.196 0.055-0.302 0.161c-0.113 0.113-0.254 0.254-0.529 0.254-0.088 0-0.16-0.072-0.16-0.16s0.072-0.16 0.16-0.16c0.135 0 0.196-0.055 0.302-0.161 0.113-0.114 0.254-0.255 0.529-0.255s0.415 0.141 0.529 0.255c0.106 0.105 0.167 0.161 0.302 0.161s0.197-0.055 0.302-0.161c0.104-0.104 0.233-0.218 0.448-0.244l0.052-0.006v-4.873c0-0.691 0.562-1.253 1.253-1.253s1.253 0.562 1.253 1.253c0 0.089-0.072 0.16-0.16 0.16s-0.16-0.072-0.16-0.16c0-0.514-0.418-0.933-0.933-0.933s-0.933 0.418-0.933 0.933v1.37h3.177v-1.37c0-0.691 0.562-1.253 1.253-1.253s1.253 0.562 1.253 1.253c0 0.089-0.072 0.16-0.16 0.16s-0.16-0.072-0.16-0.16c0-0.514-0.418-0.933-0.933-0.933s-0.933 0.418-0.933 0.933v5.063l0.063 0.060c0.106 0.105 0.167 0.161 0.302 0.161s0.196-0.055 0.302-0.161c0.113-0.114 0.254-0.255 0.529-0.255s0.415 0.141 0.528 0.254c0.106 0.106 0.168 0.161 0.303 0.161 0.088 0 0.16 0.072 0.16 0.16s-0.072 0.16-0.16 0.16zM20.751 18.244c0.274 0 0.415 0.141 0.528 0.254 0.106 0.106 0.167 0.161 0.302 0.161s0.197-0.055 0.302-0.161c0.113-0.114 0.254-0.255 0.528-0.255 0.017 0 0.032 0.003 0.047 0.006l0.099 0.014v-0.573h-3.177v0.62l0.029 0.017c0.088 0.051 0.155 0.118 0.209 0.172 0.105 0.105 0.167 0.161 0.302 0.161s0.196-0.055 0.302-0.161c0.113-0.114 0.254-0.255 0.529-0.255zM19.38 17.37h3.177v-0.991h-3.177v0.991zM19.38 16.058h3.177v-0.991h-3.177v0.991z"></path>
</svg>
