<!-- Generated by IcoMoon.io -->
<svg version="1.1" xmlns="http://www.w3.org/2000/svg" width="43" height="32" viewBox="0 0 43 32">
<title>icon-recepcao-24h</title>
<path d="M21.333 32c-8.821 0-16-7.179-16-16s7.179-16 16-16 16 7.179 16 16-7.179 16-16 16zM21.333 0.292c-8.662 0-15.708 7.046-15.708 15.708s7.046 15.708 15.708 15.708 15.708-7.046 15.708-15.708c0-8.662-7.046-15.708-15.708-15.708zM16.767 20.783c-0.183 0-0.329-0.146-0.329-0.329v-0.579c0-0.075 0.063-0.133 0.133-0.133h1.238v-0.892h-1.238c-0.075 0-0.133-0.063-0.133-0.133 0-1.175 0.458-2.275 1.288-3.108 0.675-0.675 1.529-1.104 2.467-1.242l0.046-0.008 0.004-0.042c0.058-0.438 0.392-0.771 0.771-0.771h0.646c0.383 0 0.712 0.329 0.771 0.771l0.004 0.042 0.046 0.008c0.938 0.137 1.792 0.567 2.467 1.242 0.829 0.829 1.288 1.933 1.288 3.108 0 0.075-0.063 0.133-0.133 0.133h-1.238v0.892h1.238c0.075 0 0.133 0.063 0.133 0.133v0.579c0 0.183-0.146 0.329-0.329 0.329h-9.137zM16.708 20.517h9.25v-0.504h-9.25v0.504zM18.083 19.742h6.5v-0.892h-6.5v0.892zM20.829 14.592c-1.904 0-3.55 1.292-4.004 3.142l-0.075 0.392c-0.021 0.133-0.033 0.262-0.038 0.396l-0.004 0.063h9.25l-0.004-0.063c-0.104-2.2-1.913-3.925-4.117-3.925h-1.008zM21.012 13.817c-0.217 0-0.413 0.171-0.483 0.429l-0.021 0.075h1.65l-0.021-0.075c-0.071-0.258-0.267-0.429-0.483-0.429h-0.642zM18.333 11.512l0.771-0.679c0.346-0.308 0.471-0.483 0.471-0.708 0-0.262-0.208-0.433-0.454-0.433-0.238 0-0.4 0.117-0.558 0.329-0.021 0.025-0.050 0.046-0.092 0.046-0.063 0-0.117-0.050-0.117-0.117 0-0.025 0.008-0.050 0.025-0.071 0.188-0.262 0.392-0.417 0.762-0.417 0.404 0 0.7 0.271 0.7 0.637v0.008c0 0.329-0.175 0.529-0.571 0.875l-0.604 0.537h1.092c0.063 0 0.121 0.050 0.121 0.117 0 0.063-0.054 0.117-0.121 0.117h-1.354c-0.075 0-0.129-0.050-0.129-0.121 0-0.050 0.017-0.083 0.058-0.121zM21.367 11.217h-1.121c-0.075 0-0.129-0.050-0.129-0.121 0-0.046 0.017-0.079 0.050-0.121l1.171-1.429c0.038-0.050 0.075-0.079 0.142-0.079 0.079 0 0.133 0.058 0.133 0.133v1.408h0.254c0.058 0 0.108 0.050 0.108 0.108s-0.050 0.104-0.108 0.104h-0.254v0.429c0 0.067-0.054 0.121-0.125 0.121-0.067 0-0.121-0.054-0.121-0.121v-0.433zM21.367 11.004v-1.162l-0.946 1.162h0.946zM22.583 9.613c0-0.071 0.058-0.129 0.125-0.129 0.071 0 0.129 0.058 0.129 0.129v0.887h1.3v-0.887c0-0.071 0.058-0.129 0.129-0.129 0.067 0 0.125 0.058 0.125 0.129v2.029c0 0.071-0.058 0.129-0.125 0.129-0.071 0-0.129-0.058-0.129-0.129v-0.9h-1.3v0.9c0 0.071-0.058 0.129-0.129 0.129-0.067 0-0.125-0.058-0.125-0.129v-2.029z"></path>
</svg>
