<!-- Generated by IcoMoon.io -->
<svg version="1.1" xmlns="http://www.w3.org/2000/svg" width="43" height="32" viewBox="0 0 43 32">
<title>slider-left</title>
<path d="M8.1 24.101l1.034-1.025-6.334-6.325h39.867v-1.5h-39.867l6.334-6.325-1.034-1.029-8.1 8.102z"></path>
</svg>
