[
    {
        "featureType": "all",
        "elementType": "labels.text.fill",
        "stylers": [
            {
                "saturation": 36
            },
            {
                "color": "#c1a05d"
            },
            {
                "lightness": 40
            },
            {
                "visibility": "on"
            }
        ]
    },
    {
        "featureType": "all",
        "elementType": "labels.text.stroke",
        "stylers": [
            {
                "visibility": "on"
            },
            {
                "color": "#3b3b3b"
            },
            {
                "lightness": "-27"
            },
            {
                "weight": "2.18"
            }
        ]
    },
    {
        "featureType": "all",
        "elementType": "labels.icon",
        "stylers": [
            {
                "visibility": "off"
            }
        ]
    },
    {
        "featureType": "administrative",
        "elementType": "geometry.fill",
        "stylers": [
            {
                "color": "#000000"
            },
            {
                "lightness": 20
            }
        ]
    },
    {
        "featureType": "administrative",
        "elementType": "geometry.stroke",
        "stylers": [
            {
                "color": "#000000"
            },
            {
                "lightness": 17
            },
            {
                "weight": 1.2
            }
        ]
    },
    {
        "featureType": "administrative.country",
        "elementType": "labels.text",
        "stylers": [
            {
                "visibility": "off"
            }
        ]
    },
    {
        "featureType": "administrative.province",
        "elementType": "labels.text",
        "stylers": [
            {
                "visibility": "off"
            }
        ]
    },
    {
        "featureType": "administrative.locality",
        "elementType": "labels.text",
        "stylers": [
            {
                "visibility": "on"
            },
            {
                "color": "#787878"
            }
        ]
    },
    {
        "featureType": "administrative.locality",
        "elementType": "labels.text.stroke",
        "stylers": [
            {
                "visibility": "off"
            }
        ]
    },
    {
        "featureType": "landscape",
        "elementType": "geometry",
        "stylers": [
            {
                "color": "#1a1a1a"
            },
            {
                "lightness": "2"
            },
            {
                "saturation": "-2"
            },
            {
                "gamma": "1"
            }
        ]
    },
    {
        "featureType": "landscape",
        "elementType": "labels.text",
        "stylers": [
            {
                "visibility": "on"
            }
        ]
    },
    {
        "featureType": "landscape",
        "elementType": "labels.text.fill",
        "stylers": [
            {
                "visibility": "on"
            }
        ]
    },
    {
        "featureType": "poi",
        "elementType": "geometry",
        "stylers": [
            {
                "color": "#000000"
            },
            {
                "lightness": 21
            }
        ]
    },
    {
        "featureType": "poi",
        "elementType": "labels.text",
        "stylers": [
            {
                "visibility": "off"
            }
        ]
    },
    {
        "featureType": "poi",
        "elementType": "labels.text.fill",
        "stylers": [
            {
                "visibility": "off"
            }
        ]
    },
    {
        "featureType": "road.highway",
        "elementType": "geometry.fill",
        "stylers": [
            {
                "color": "#252525"
            },
            {
                "lightness": 17
            }
        ]
    },
    {
        "featureType": "road.highway",
        "elementType": "geometry.stroke",
        "stylers": [
            {
                "color": "#000000"
            },
            {
                "lightness": 29
            },
            {
                "weight": 0.2
            }
        ]
    },
    {
        "featureType": "road.arterial",
        "elementType": "geometry",
        "stylers": [
            {
                "color": "#000000"
            },
            {
                "lightness": 18
            }
        ]
    },
    {
        "featureType": "road.arterial",
        "elementType": "labels.text",
        "stylers": [
            {
                "visibility": "off"
            }
        ]
    },
    {
        "featureType": "road.local",
        "elementType": "geometry",
        "stylers": [
            {
                "color": "#181818"
            },
            {
                "lightness": 16
            }
        ]
    },
    {
        "featureType": "road.local",
        "elementType": "labels.text",
        "stylers": [
            {
                "visibility": "on"
            }
        ]
    },
    {
        "featureType": "road.local",
        "elementType": "labels.text.fill",
        "stylers": [
            {
                "lightness": "-54"
            },
            {
                "color": "#737373"
            }
        ]
    },
    {
        "featureType": "road.local",
        "elementType": "labels.text.stroke",
        "stylers": [
            {
                "visibility": "off"
            },
            {
                "color": "#303030"
            }
        ]
    },
    {
        "featureType": "transit",
        "elementType": "geometry",
        "stylers": [
            {
                "color": "#000000"
            },
            {
                "lightness": 19
            }
        ]
    },
    {
        "featureType": "water",
        "elementType": "geometry",
        "stylers": [
            {
                "lightness": "0"
            },
            {
                "color": "#bc9b5d"
            },
            {
                "visibility": "on"
            },
            {
                "gamma": "1.2"
            }
        ]
    }
]
