<?xml version="1.0" encoding="utf-8"?>
<!-- Generator: Adobe Illustrator 25.0.1, SVG Export Plug-In . SVG Version: 6.00 Build 0)  -->
<svg class="icon icon-facebook-novo" version="1.1" id="icon-facebook-novo" xmlns="http://www.w3.org/2000/svg" xmlns:xlink="http://www.w3.org/1999/xlink" x="0px" y="0px"
	 viewBox="0 0 348 768" style="enable-background:new 0 0 348 768;" xml:space="preserve">
<style type="text/css">
	.st0{fill:#696969;}
</style>
<g>
	<g>
		<path class="st0" d="M216,279v-84c0-23.2,18.8-42,42-42h42V48h-84c-69.6,0-126,56.4-126,126v105H6v105h84v336h126V384h84l42-105
			H216z"/>
	</g>
</g>
</svg>
