<!-- Generated by IcoMoon.io -->
<svg version="1.1" xmlns="http://www.w3.org/2000/svg" width="43" height="32" viewBox="0 0 43 32">
<title>circle-fridge</title>
<path d="M21.333 0c-8.821 0-16 7.179-16 16s7.179 16 16 16 16-7.179 16-16-7.179-16-16-16zM21.333 31.708c-8.662 0-15.708-7.046-15.708-15.708s7.046-15.708 15.708-15.708 15.708 7.046 15.708 15.708-7.046 15.708-15.708 15.708z"></path>
<path d="M23.988 12.042h-5.308c-0.387 0-0.7 0.313-0.7 0.7v6.958c0.004 0.363 0.288 0.671 0.646 0.696l0.058 0.004v0.3c0 0.096 0.075 0.171 0.171 0.171s0.171-0.075 0.171-0.171v-0.3h4.613v0.3c0 0.096 0.075 0.171 0.171 0.171s0.171-0.075 0.171-0.171v-0.304l0.058-0.004c0.367-0.029 0.646-0.329 0.646-0.696v-6.958c0.004-0.379-0.308-0.696-0.696-0.696zM24.346 19.7c0 0.2-0.163 0.358-0.358 0.358h-5.308c-0.2 0-0.358-0.163-0.358-0.358v-6.958c0-0.2 0.163-0.358 0.358-0.358h5.304c0.2 0 0.358 0.162 0.358 0.358v6.958z"></path>
<path d="M23.1 14.4c-0.096 0-0.171 0.075-0.171 0.171v1.417c0 0.096 0.075 0.171 0.171 0.171s0.171-0.075 0.171-0.171v-1.417c0-0.092-0.075-0.171-0.171-0.171z"></path>
</svg>
