<!-- Generated by IcoMoon.io -->
<svg version="1.1" xmlns="http://www.w3.org/2000/svg" width="43" height="32" viewBox="0 0 43 32">
<title>circle-kitchen</title>
<path d="M21.333 32c-8.822 0-16-7.178-16-16s7.178-16 16-16 16 7.178 16 16-7.178 16-16 16zM21.333 0.291c-8.662 0-15.708 7.047-15.708 15.708s7.047 15.709 15.708 15.709 15.708-7.047 15.708-15.709c0-8.662-7.047-15.708-15.708-15.708z"></path>
<path d="M24.671 12.193h-6.675c-0.329 0-0.597 0.268-0.597 0.597v6.978c0 0.329 0.268 0.597 0.597 0.597h0.009v0.313c0 0.162 0.132 0.294 0.294 0.294h0.303c0.162 0 0.294-0.132 0.294-0.294v-0.313h4.873v0.313c0 0.162 0.132 0.294 0.294 0.294h0.303c0.162 0 0.294-0.132 0.294-0.294v-0.313h0.009c0.329 0 0.597-0.268 0.597-0.597v-6.978c-0-0.329-0.268-0.597-0.597-0.597zM17.996 12.477h6.675c0.173 0 0.313 0.14 0.313 0.313v1.527h-7.301v-1.527c0-0.172 0.14-0.313 0.313-0.313zM18.612 20.679c0 0.005-0.004 0.009-0.009 0.009h-0.303c-0.005 0-0.009-0.004-0.009-0.009v-0.313h0.322v0.313zM24.377 20.679c0 0.005-0.004 0.009-0.009 0.009h-0.303c-0.005 0-0.009-0.004-0.009-0.009v-0.313h0.322v0.313zM24.671 20.082h-6.675c-0.173 0-0.313-0.14-0.313-0.313v-5.167h7.301v5.167c0 0.173-0.14 0.313-0.313 0.313z"></path>
<path d="M20.727 13.539h0.027c0.064 0.261 0.3 0.455 0.58 0.455s0.516-0.194 0.58-0.455h0.027c0.079 0 0.142-0.064 0.142-0.142s-0.064-0.142-0.142-0.142h-0.027c-0.064-0.261-0.3-0.455-0.58-0.455s-0.516 0.194-0.58 0.455h-0.027c-0.079 0-0.142 0.064-0.142 0.142s0.064 0.142 0.142 0.142zM21.333 13.71c-0.121 0-0.226-0.069-0.278-0.171h0.557c-0.052 0.101-0.157 0.171-0.278 0.171zM21.333 13.084c0.121 0 0.226 0.069 0.278 0.171h-0.557c0.052-0.101 0.157-0.171 0.278-0.171z"></path>
<path d="M22.776 13.726c-0.056 0.056-0.056 0.146 0 0.201 0.028 0.028 0.064 0.042 0.101 0.042s0.073-0.014 0.101-0.042l0.019-0.019c0.095 0.057 0.202 0.086 0.31 0.086 0.153 0 0.306-0.058 0.422-0.175 0.198-0.198 0.228-0.502 0.088-0.732l0.019-0.019c0.056-0.056 0.056-0.146 0-0.201s-0.146-0.056-0.201 0l-0.019 0.019c-0.23-0.139-0.534-0.11-0.732 0.088s-0.228 0.502-0.088 0.732l-0.019 0.019zM23.527 13.618c-0.086 0.086-0.209 0.111-0.317 0.076l0.394-0.394c0.035 0.108 0.010 0.232-0.076 0.318zM23.084 13.176c0.061-0.061 0.141-0.091 0.221-0.091 0.033 0 0.065 0.005 0.096 0.015l-0.394 0.394c-0.035-0.108-0.010-0.232 0.076-0.318z"></path>
<path d="M18.939 13.82c0.116 0.116 0.269 0.175 0.422 0.175 0.107 0 0.215-0.029 0.31-0.086l0.019 0.019c0.028 0.028 0.064 0.042 0.101 0.042s0.073-0.014 0.101-0.042c0.056-0.056 0.056-0.146 0-0.201l-0.019-0.019c0.139-0.23 0.11-0.534-0.088-0.732s-0.502-0.228-0.732-0.088l-0.019-0.019c-0.056-0.056-0.146-0.056-0.201 0s-0.056 0.146 0 0.201l0.019 0.019c-0.139 0.23-0.11 0.534 0.088 0.732zM19.14 13.618c-0.086-0.086-0.111-0.209-0.076-0.318l0.394 0.394c-0.108 0.035-0.232 0.010-0.318-0.076zM19.361 13.084c0.080 0 0.16 0.030 0.221 0.091 0.086 0.086 0.111 0.209 0.076 0.318l-0.394-0.394c0.031-0.010 0.064-0.015 0.096-0.015z"></path>
<path d="M23.912 15.227h-5.158c-0.246 0-0.446 0.2-0.446 0.446v3.337c0 0.246 0.2 0.446 0.446 0.446h5.158c0.246 0 0.446-0.2 0.446-0.446v-3.337c0-0.246-0.2-0.446-0.446-0.446zM24.073 19.010c0 0.089-0.072 0.161-0.161 0.161h-5.158c-0.089 0-0.161-0.072-0.161-0.161v-3.337c0-0.089 0.072-0.161 0.161-0.161h5.158c0.089 0 0.161 0.072 0.161 0.161v3.337z"></path>
<path d="M22.504 16.452h-2.341c-0.081 0-0.146-0.065-0.146-0.146s0.065-0.146 0.146-0.146h2.341c0.081 0 0.146 0.065 0.146 0.146s-0.065 0.146-0.146 0.146z"></path>
<path d="M20.755 11.937h-2.341c-0.081 0-0.146-0.065-0.146-0.146s0.065-0.146 0.146-0.146h2.341c0.081 0 0.146 0.065 0.146 0.146s-0.065 0.146-0.146 0.146z"></path>
<path d="M24.253 11.937h-2.341c-0.081 0-0.146-0.065-0.146-0.146s0.065-0.146 0.146-0.146h2.341c0.081 0 0.146 0.065 0.146 0.146s-0.065 0.146-0.146 0.146z"></path>
</svg>
