<!-- Generated by IcoMoon.io -->
<svg version="1.1" xmlns="http://www.w3.org/2000/svg" width="43" height="32" viewBox="0 0 43 32">
<title>arrow-bottom</title>
<path d="M21.333 27.854l-21.333-21.333 2.374-2.374 18.959 18.959 18.959-18.959 2.374 2.374z"></path>
</svg>
