<!-- Generated by IcoMoon.io -->
<svg version="1.1" xmlns="http://www.w3.org/2000/svg" width="43" height="32" viewBox="0 0 43 32">
<title>circle-kids-club</title>
<path d="M21.333 32c-8.822 0-16-7.178-16-16s7.178-16 16-16 16 7.178 16 16-7.178 16-16 16zM21.333 0.291c-8.662 0-15.709 7.047-15.709 15.709s7.047 15.709 15.709 15.709c8.662 0 15.709-7.047 15.709-15.709s-7.047-15.709-15.709-15.709z"></path>
<path d="M25.986 19.194l-0.831-2.187c-0.024-0.064-0.086-0.107-0.155-0.107h-0.413c0.352-0.28 0.578-0.711 0.578-1.195 0-0.709-0.485-1.306-1.141-1.477v-0.963h0.339c0.092 0 0.166-0.074 0.166-0.166v-0.891c0-0.092-0.074-0.166-0.166-0.166h-2.154c-0.092 0-0.166 0.074-0.166 0.166v0.891c0 0.092 0.074 0.166 0.166 0.166h0.339v0.914h-1.598v-0.913h0.238c0.073 0 0.138-0.048 0.159-0.119l0.265-0.891c0.015-0.050 0.005-0.104-0.026-0.146s-0.081-0.067-0.133-0.067h-4.618c-0.050 0-0.098 0.023-0.129 0.062s-0.043 0.091-0.033 0.14l0.198 0.891c0.017 0.076 0.084 0.13 0.162 0.13h0.236l-0.003 5.988c0 0.092 0.074 0.166 0.166 0.166h0.645c0.218 0.324 0.588 0.539 1.007 0.539s0.789-0.214 1.007-0.539h2.155c0.218 0.324 0.588 0.539 1.007 0.539s0.789-0.214 1.007-0.539h1.572c0.055 0 0.105-0.027 0.137-0.072s0.038-0.102 0.018-0.153zM22.376 12.934v-0.56h1.823v0.56h-1.823zM23.694 13.265v0.913h-0.814v-0.913h0.814zM20.951 14.51h2.689c0.659 0 1.195 0.536 1.195 1.195s-0.536 1.195-1.195 1.195h-2.689v-2.39zM17.166 12.934l-0.124-0.56h4.189l-0.166 0.56h-3.899zM20.619 13.265v3.635h-3.019v-3.635h3.019zM19.083 19.626c-0.485 0-0.88-0.395-0.88-0.88s0.395-0.88 0.88-0.88 0.88 0.395 0.88 0.88c0 0.485-0.395 0.88-0.88 0.88zM23.252 19.626c-0.485 0-0.88-0.395-0.88-0.88s0.395-0.88 0.88-0.88 0.88 0.395 0.88 0.88c0 0.485-0.395 0.88-0.88 0.88zM24.414 19.087c0.032-0.108 0.049-0.223 0.049-0.341 0-0.668-0.544-1.211-1.212-1.211s-1.211 0.543-1.211 1.211c0 0.119 0.017 0.233 0.049 0.341h-1.844c0.032-0.108 0.049-0.223 0.049-0.341 0-0.668-0.543-1.211-1.211-1.211s-1.212 0.543-1.212 1.211c0 0.119 0.017 0.233 0.049 0.341h-0.323v-1.855h7.288l0.705 1.855h-1.177z"></path>
<path d="M19.943 13.757h-1.589c-0.092 0-0.166 0.074-0.166 0.166v1.192c0 0.092 0.074 0.166 0.166 0.166h1.589c0.092 0 0.166-0.074 0.166-0.166v-1.192c0-0.092-0.074-0.166-0.166-0.166zM19.777 14.949h-1.257v-0.86h1.257v0.86z"></path>
</svg>
