<!-- Generated by IcoMoon.io -->
<svg version="1.1" xmlns="http://www.w3.org/2000/svg" width="43" height="32" viewBox="0 0 43 32">
<title>close</title>
<path d="M37.334 2.117l-2.117-2.117-13.883 13.883-13.883-13.883-2.117 2.117 13.883 13.883-13.883 13.883 2.117 2.117 13.883-13.883 13.883 13.883 2.117-2.117-13.883-13.883z"></path>
</svg>
