<!-- Generated by IcoMoon.io -->
<svg version="1.1" xmlns="http://www.w3.org/2000/svg" width="43" height="32" viewBox="0 0 43 32">
<title>instagram</title>
<path d="M37.317 4.108v23.796c0 1.121-0.396 2.075-1.192 2.867-0.798 0.804-1.767 1.213-2.91 1.229h-23.76c-1.119 0-2.088-0.408-2.908-1.229-0.821-0.817-1.223-1.775-1.196-2.867v-23.796c0-1.121 0.398-2.075 1.196-2.879 0.796-0.792 1.764-1.2 2.908-1.229h23.76c1.119 0 2.087 0.413 2.91 1.229 0.821 0.821 1.217 1.775 1.192 2.879zM33.698 27.046v-13.504h-2.798c0.275 0.867 0.413 1.775 0.413 2.725 0 1.767-0.448 3.375-1.344 4.842s-2.1 2.642-3.617 3.509c-1.519 0.875-3.186 1.312-4.998 1.312-2.738 0-5.073-0.95-7.012-2.842-1.94-1.888-2.91-4.163-2.91-6.821 0-0.95 0.138-1.858 0.41-2.725h-2.946v13.504c0 0.346 0.123 0.65 0.373 0.896 0.248 0.246 0.558 0.371 0.931 0.371h22.231c0.348 0 0.646-0.125 0.894-0.371 0.25-0.246 0.373-0.55 0.373-0.896zM27.808 15.929c0-1.712-0.637-3.187-1.904-4.4-1.269-1.221-2.783-1.829-4.55-1.829-1.769 0-3.271 0.608-4.512 1.829-1.246 1.213-1.881 2.688-1.904 4.4-0.025 1.712 0.61 3.187 1.904 4.396 1.289 1.221 2.796 1.833 4.512 1.833 1.79 0 3.306-0.612 4.55-1.833 1.242-1.208 1.879-2.683 1.904-4.396zM33.698 8.433v-3.433c0-0.371-0.137-0.708-0.408-1.008-0.273-0.292-0.61-0.429-1.008-0.413h-3.654c-0.4 0-0.733 0.138-1.008 0.413-0.273 0.271-0.41 0.608-0.41 1.008v3.433c0 0.421 0.138 0.767 0.41 1.038 0.275 0.275 0.608 0.412 1.008 0.412h3.654c0.398 0 0.735-0.137 1.008-0.412 0.271-0.271 0.408-0.617 0.408-1.038z"></path>
</svg>
