<!-- Generated by IcoMoon.io -->
<svg version="1.1" xmlns="http://www.w3.org/2000/svg" width="43" height="32" viewBox="0 0 43 32">
<title>more</title>
<path d="M37.333 14.272h-14.272v-14.272h-3.455v14.272h-14.272v3.455h14.272v14.272h3.455v-14.272h14.272z"></path>
</svg>
