<!-- Generated by IcoMoon.io -->
<svg version="1.1" xmlns="http://www.w3.org/2000/svg" width="43" height="32" viewBox="0 0 43 32">
<title>pictures</title>
<path d="M38.287 8.546v20.652h-27.537v-20.652h27.537zM41.089 5.744h-33.14v26.256h33.14v-26.256zM4.38 2.803h30.198v-2.803h-33v25.102h2.803v-22.299z"></path>
</svg>
